(module SCD30 (layer F.Cu) (tedit 602B77FE)
  (descr "Through hole straight pin header, 1x07, 2.54mm pitch, single row")
  (tags "Through hole pin header THT 1x07 2.54mm single row")
  (fp_text reference REF** (at 0 0.1 180) (layer F.SilkS)
    (effects (font (size 1 1) (thickness 0.15)))
  )
  (fp_text value SCD30 (at 2 16.9 180) (layer F.Fab)
    (effects (font (size 1 1) (thickness 0.15)))
  )
  (fp_line (start 7.3 2.1) (end 9.1 2.1) (layer F.SilkS) (width 0.12))
  (fp_line (start 18.1 2.1) (end 7.3 2.1) (layer F.SilkS) (width 0.12))
  (fp_line (start 18.1 25.1) (end 18.1 2.1) (layer F.SilkS) (width 0.12))
  (fp_line (start -16.9 25.1) (end 18.1 25.1) (layer F.SilkS) (width 0.12))
  (fp_line (start -16.9 2.1) (end -16.9 25.1) (layer F.SilkS) (width 0.12))
  (fp_line (start -16.9 2.1) (end -16.9 7.7) (layer F.SilkS) (width 0.12))
  (fp_line (start -16.9 2.1) (end 7.3 2.1) (layer F.SilkS) (width 0.12))
  (fp_line (start -16.77 4.135) (end -16.77 2.23) (layer F.Fab) (width 0.1))
  (fp_line (start -16.77 2.23) (end 1.01 2.23) (layer F.Fab) (width 0.1))
  (fp_line (start 1.01 2.23) (end 1.01 4.77) (layer F.Fab) (width 0.1))
  (fp_line (start 1.01 4.77) (end -16.135 4.77) (layer F.Fab) (width 0.1))
  (fp_line (start -16.135 4.77) (end -16.77 4.135) (layer F.Fab) (width 0.1))
  (fp_line (start 1.07 4.83) (end 1.07 2.17) (layer F.SilkS) (width 0.12))
  (fp_line (start -14.23 4.83) (end 1.07 4.83) (layer F.SilkS) (width 0.12))
  (fp_line (start -14.23 2.17) (end 1.07 2.17) (layer F.SilkS) (width 0.12))
  (fp_line (start -14.23 4.83) (end -14.23 2.17) (layer F.SilkS) (width 0.12))
  (fp_line (start -15.5 4.83) (end -16.83 4.83) (layer F.SilkS) (width 0.12))
  (fp_line (start -16.83 4.83) (end -16.83 3.5) (layer F.SilkS) (width 0.12))
  (fp_line (start -17.3 5.3) (end 1.55 5.3) (layer F.CrtYd) (width 0.05))
  (fp_line (start 1.55 5.3) (end 1.55 1.7) (layer F.CrtYd) (width 0.05))
  (fp_line (start 1.55 1.7) (end -17.3 1.7) (layer F.CrtYd) (width 0.05))
  (fp_line (start -17.3 1.7) (end -17.3 5.3) (layer F.CrtYd) (width 0.05))
  (fp_text user %R (at -7.88 3.5 180) (layer F.Fab)
    (effects (font (size 1 1) (thickness 0.15)))
  )
  (pad 1 thru_hole rect (at -15.5 3.5 90) (size 1.7 1.7) (drill 1) (layers *.Cu *.Mask))
  (pad 2 thru_hole oval (at -12.96 3.5 90) (size 1.7 1.7) (drill 1) (layers *.Cu *.Mask))
  (pad 3 thru_hole oval (at -10.42 3.5 90) (size 1.7 1.7) (drill 1) (layers *.Cu *.Mask))
  (pad 4 thru_hole oval (at -7.88 3.5 90) (size 1.7 1.7) (drill 1) (layers *.Cu *.Mask))
  (pad 5 thru_hole oval (at -5.34 3.5 90) (size 1.7 1.7) (drill 1) (layers *.Cu *.Mask))
  (pad 6 thru_hole oval (at -2.8 3.5 90) (size 1.7 1.7) (drill 1) (layers *.Cu *.Mask))
  (pad 7 thru_hole oval (at -0.26 3.5 90) (size 1.7 1.7) (drill 1) (layers *.Cu *.Mask))
  (model ${KISYS3DMOD}/Connector_PinHeader_2.54mm.3dshapes/PinHeader_1x07_P2.54mm_Vertical.wrl
    (at (xyz 0 0 0))
    (scale (xyz 1 1 1))
    (rotate (xyz 0 0 0))
  )
)
