(module WAGO2604-1102 (layer F.Cu) (tedit 618CC0B6)
  (fp_text reference REF** (at 3.4 -4) (layer F.SilkS)
    (effects (font (size 1 1) (thickness 0.15)))
  )
  (fp_text value WAGO2604-1102 (at 3.2 17.7) (layer F.SilkS)
    (effects (font (size 1 1) (thickness 0.15)))
  )
  (fp_line (start -2.827002 16.4294) (end 9.826998 16.4294) (layer F.SilkS) (width 0.12))
  (fp_line (start 9.826998 16.4294) (end 9.826998 -3.027) (layer F.SilkS) (width 0.12))
  (fp_line (start 9.826998 -3.027) (end -2.827002 -3.027) (layer F.SilkS) (width 0.12))
  (fp_line (start -2.827002 -3.027) (end -2.827002 16.4294) (layer F.SilkS) (width 0.12))
  (fp_line (start -2.700002 16.3024) (end 9.699998 16.3024) (layer F.Fab) (width 0.1))
  (fp_line (start 9.699998 16.3024) (end 9.699998 -2.9) (layer F.Fab) (width 0.1))
  (fp_line (start 9.699998 -2.9) (end -2.700002 -2.9) (layer F.Fab) (width 0.1))
  (fp_line (start -2.700002 -2.9) (end -2.700002 16.3024) (layer F.Fab) (width 0.1))
  (fp_line (start -2.954002 -3.154) (end -2.954002 16.5564) (layer F.CrtYd) (width 0.05))
  (fp_line (start -2.954002 16.5564) (end 9.953998 16.5564) (layer F.CrtYd) (width 0.05))
  (fp_line (start 9.953998 16.5564) (end 9.953998 -3.154) (layer F.CrtYd) (width 0.05))
  (fp_line (start 9.953998 -3.154) (end -2.954002 -3.154) (layer F.CrtYd) (width 0.05))
  (pad 1 thru_hole circle (at 0 0) (size 3 3) (drill 1.3) (layers *.Cu *.Mask))
  (pad 3 thru_hole circle (at 5 0) (size 3 3) (drill 1.3) (layers *.Cu *.Mask))
  (pad 2 thru_hole circle (at 0 8.2) (size 3 3) (drill 1.3) (layers *.Cu *.Mask))
  (pad 4 thru_hole circle (at 5 8.2) (size 3 3) (drill 1.3) (layers *.Cu *.Mask))
)
